{
    "name": "ImportBook",
    "fields": [
        {
            "fieldName": "importDate",
            "fieldType": "Instant"
        },
        {
            "fieldName": "provider",
            "fieldType": "String"
        }
    ],
    "relationships": [
        {
            "relationshipType": "one-to-one",
            "otherEntityName": "employee",
            "otherEntityRelationshipName": "importBook",
            "relationshipName": "employee",
            "otherEntityField": "id",
            "ownerSide": true
        },
        {
            "relationshipType": "one-to-many",
            "otherEntityName": "importDetails",
            "otherEntityRelationshipName": "importBook",
            "relationshipName": "importDetails"
        }
    ],
    "changelogDate": "20200322090400",
    "entityTableName": "import_book",
    "dto": "mapstruct",
    "pagination": "pagination",
    "service": "serviceImpl",
    "jpaMetamodelFiltering": true,
    "fluentMethods": true,
    "readOnly": false,
    "embedded": false,
    "clientRootFolder": "",
    "applications": "*"
}